(export (version D)
  (design
    (source "/home/trevor/Documents/Transmutable/Code/goods/fletch-case/cad/boards/100-000 Fletch board/100-000 Fletch board.sch")
    (date "Fri 05 Mar 2021 09:10:01 AM PST")
    (tool "Eeschema 5.1.9")
    (sheet (number 1) (name /) (tstamps /)
      (title_block
        (title "Fletch board")
        (company Transmutable)
        (rev 001)
        (date 2021-03-03)
        (source "100-000 Fletch board.sch")
        (comment (number 1) (value "Trevor F. Smith"))
        (comment (number 2) (value ""))
        (comment (number 3) (value ""))
        (comment (number 4) (value "")))))
  (components
    (comp (ref J1)
      (value Conn_01x16_Female)
      (footprint Connector_PinSocket_2.54mm:PinSocket_1x16_P2.54mm_Vertical)
      (datasheet ~)
      (libsource (lib Connector) (part Conn_01x16_Female) (description "Generic connector, single row, 01x16, script generated (kicad-library-utils/schlib/autogen/connector/)"))
      (sheetpath (names /) (tstamps /))
      (tstamp 60402F53))
    (comp (ref J3)
      (value Conn_02x15_Odd_Even)
      (footprint Connector_PinHeader_2.54mm:PinHeader_2x15_P2.54mm_Vertical)
      (datasheet ~)
      (libsource (lib Connector_Generic) (part Conn_02x15_Odd_Even) (description "Generic connector, double row, 02x15, odd/even pin numbering scheme (row 1 odd numbers, row 2 even numbers), script generated (kicad-library-utils/schlib/autogen/connector/)"))
      (sheetpath (names /) (tstamps /))
      (tstamp 60434F44))
    (comp (ref J2)
      (value Conn_01x12_Female)
      (footprint Connector_PinSocket_2.54mm:PinSocket_1x12_P2.54mm_Vertical)
      (datasheet ~)
      (libsource (lib Connector) (part Conn_01x12_Female) (description "Generic connector, single row, 01x12, script generated (kicad-library-utils/schlib/autogen/connector/)"))
      (sheetpath (names /) (tstamps /))
      (tstamp 604044DA))
    (comp (ref H3)
      (value MountingHole)
      (footprint MountingHole:MountingHole_2.5mm)
      (datasheet ~)
      (libsource (lib Mechanical) (part MountingHole) (description "Mounting Hole without connection"))
      (sheetpath (names /) (tstamps /))
      (tstamp 60418EF5))
    (comp (ref H4)
      (value MountingHole)
      (footprint MountingHole:MountingHole_2.5mm)
      (datasheet ~)
      (libsource (lib Mechanical) (part MountingHole) (description "Mounting Hole without connection"))
      (sheetpath (names /) (tstamps /))
      (tstamp 6041967F))
    (comp (ref H2)
      (value MountingHole)
      (footprint MountingHole:MountingHole_2.5mm)
      (datasheet ~)
      (libsource (lib Mechanical) (part MountingHole) (description "Mounting Hole without connection"))
      (sheetpath (names /) (tstamps /))
      (tstamp 60419A4B))
    (comp (ref H1)
      (value MountingHole)
      (footprint MountingHole:MountingHole_2.5mm)
      (datasheet ~)
      (libsource (lib Mechanical) (part MountingHole) (description "Mounting Hole without connection"))
      (sheetpath (names /) (tstamps /))
      (tstamp 60419DE3))
    (comp (ref H5)
      (value MountingHole)
      (footprint MountingHole:MountingHole_2.5mm)
      (datasheet ~)
      (libsource (lib Mechanical) (part MountingHole) (description "Mounting Hole without connection"))
      (sheetpath (names /) (tstamps /))
      (tstamp 604556DD))
    (comp (ref H6)
      (value MountingHole)
      (footprint MountingHole:MountingHole_2.5mm)
      (datasheet ~)
      (libsource (lib Mechanical) (part MountingHole) (description "Mounting Hole without connection"))
      (sheetpath (names /) (tstamps /))
      (tstamp 60455D48)))
  (libparts
    (libpart (lib Connector) (part Conn_01x12_Female)
      (description "Generic connector, single row, 01x12, script generated (kicad-library-utils/schlib/autogen/connector/)")
      (docs ~)
      (footprints
        (fp Connector*:*_1x??_*))
      (fields
        (field (name Reference) J)
        (field (name Value) Conn_01x12_Female))
      (pins
        (pin (num 1) (name Pin_1) (type passive))
        (pin (num 2) (name Pin_2) (type passive))
        (pin (num 3) (name Pin_3) (type passive))
        (pin (num 4) (name Pin_4) (type passive))
        (pin (num 5) (name Pin_5) (type passive))
        (pin (num 6) (name Pin_6) (type passive))
        (pin (num 7) (name Pin_7) (type passive))
        (pin (num 8) (name Pin_8) (type passive))
        (pin (num 9) (name Pin_9) (type passive))
        (pin (num 10) (name Pin_10) (type passive))
        (pin (num 11) (name Pin_11) (type passive))
        (pin (num 12) (name Pin_12) (type passive))))
    (libpart (lib Connector) (part Conn_01x16_Female)
      (description "Generic connector, single row, 01x16, script generated (kicad-library-utils/schlib/autogen/connector/)")
      (docs ~)
      (footprints
        (fp Connector*:*_1x??_*))
      (fields
        (field (name Reference) J)
        (field (name Value) Conn_01x16_Female))
      (pins
        (pin (num 1) (name Pin_1) (type passive))
        (pin (num 2) (name Pin_2) (type passive))
        (pin (num 3) (name Pin_3) (type passive))
        (pin (num 4) (name Pin_4) (type passive))
        (pin (num 5) (name Pin_5) (type passive))
        (pin (num 6) (name Pin_6) (type passive))
        (pin (num 7) (name Pin_7) (type passive))
        (pin (num 8) (name Pin_8) (type passive))
        (pin (num 9) (name Pin_9) (type passive))
        (pin (num 10) (name Pin_10) (type passive))
        (pin (num 11) (name Pin_11) (type passive))
        (pin (num 12) (name Pin_12) (type passive))
        (pin (num 13) (name Pin_13) (type passive))
        (pin (num 14) (name Pin_14) (type passive))
        (pin (num 15) (name Pin_15) (type passive))
        (pin (num 16) (name Pin_16) (type passive))))
    (libpart (lib Connector_Generic) (part Conn_02x15_Odd_Even)
      (description "Generic connector, double row, 02x15, odd/even pin numbering scheme (row 1 odd numbers, row 2 even numbers), script generated (kicad-library-utils/schlib/autogen/connector/)")
      (docs ~)
      (footprints
        (fp Connector*:*_2x??_*))
      (fields
        (field (name Reference) J)
        (field (name Value) Conn_02x15_Odd_Even))
      (pins
        (pin (num 1) (name Pin_1) (type passive))
        (pin (num 2) (name Pin_2) (type passive))
        (pin (num 3) (name Pin_3) (type passive))
        (pin (num 4) (name Pin_4) (type passive))
        (pin (num 5) (name Pin_5) (type passive))
        (pin (num 6) (name Pin_6) (type passive))
        (pin (num 7) (name Pin_7) (type passive))
        (pin (num 8) (name Pin_8) (type passive))
        (pin (num 9) (name Pin_9) (type passive))
        (pin (num 10) (name Pin_10) (type passive))
        (pin (num 11) (name Pin_11) (type passive))
        (pin (num 12) (name Pin_12) (type passive))
        (pin (num 13) (name Pin_13) (type passive))
        (pin (num 14) (name Pin_14) (type passive))
        (pin (num 15) (name Pin_15) (type passive))
        (pin (num 16) (name Pin_16) (type passive))
        (pin (num 17) (name Pin_17) (type passive))
        (pin (num 18) (name Pin_18) (type passive))
        (pin (num 19) (name Pin_19) (type passive))
        (pin (num 20) (name Pin_20) (type passive))
        (pin (num 21) (name Pin_21) (type passive))
        (pin (num 22) (name Pin_22) (type passive))
        (pin (num 23) (name Pin_23) (type passive))
        (pin (num 24) (name Pin_24) (type passive))
        (pin (num 25) (name Pin_25) (type passive))
        (pin (num 26) (name Pin_26) (type passive))
        (pin (num 27) (name Pin_27) (type passive))
        (pin (num 28) (name Pin_28) (type passive))
        (pin (num 29) (name Pin_29) (type passive))
        (pin (num 30) (name Pin_30) (type passive))))
    (libpart (lib Mechanical) (part MountingHole)
      (description "Mounting Hole without connection")
      (docs ~)
      (footprints
        (fp MountingHole*))
      (fields
        (field (name Reference) H)
        (field (name Value) MountingHole))))
  (libraries
    (library (logical Connector)
      (uri /app/extensions/Library/Symbols/share/kicad/library/Connector.lib))
    (library (logical Connector_Generic)
      (uri /app/extensions/Library/Symbols/share/kicad/library/Connector_Generic.lib))
    (library (logical Mechanical)
      (uri /app/extensions/Library/Symbols/share/kicad/library/Mechanical.lib)))
  (nets
    (net (code 1) (name "Net-(J1-Pad7)")
      (node (ref J3) (pin 19))
      (node (ref J1) (pin 7)))
    (net (code 2) (name "Net-(J2-Pad8)")
      (node (ref J2) (pin 8))
      (node (ref J3) (pin 10)))
    (net (code 3) (name "Net-(J2-Pad9)")
      (node (ref J3) (pin 8))
      (node (ref J2) (pin 9)))
    (net (code 4) (name "Net-(J3-Pad28)")
      (node (ref J3) (pin 28)))
    (net (code 5) (name "Net-(J3-Pad26)")
      (node (ref J3) (pin 26)))
    (net (code 6) (name "Net-(J1-Pad1)")
      (node (ref J3) (pin 30))
      (node (ref J1) (pin 1)))
    (net (code 7) (name "Net-(J1-Pad2)")
      (node (ref J1) (pin 2))
      (node (ref J3) (pin 29)))
    (net (code 8) (name "Net-(J1-Pad3)")
      (node (ref J1) (pin 3))
      (node (ref J3) (pin 27)))
    (net (code 9) (name "Net-(J1-Pad4)")
      (node (ref J1) (pin 4))
      (node (ref J3) (pin 25)))
    (net (code 10) (name "Net-(J1-Pad5)")
      (node (ref J1) (pin 5))
      (node (ref J3) (pin 23)))
    (net (code 11) (name "Net-(J1-Pad6)")
      (node (ref J3) (pin 21))
      (node (ref J1) (pin 6)))
    (net (code 12) (name "Net-(J2-Pad7)")
      (node (ref J2) (pin 7))
      (node (ref J3) (pin 12)))
    (net (code 13) (name "Net-(J1-Pad8)")
      (node (ref J3) (pin 17))
      (node (ref J1) (pin 8)))
    (net (code 14) (name "Net-(J1-Pad9)")
      (node (ref J3) (pin 15))
      (node (ref J1) (pin 9)))
    (net (code 15) (name "Net-(J1-Pad10)")
      (node (ref J3) (pin 13))
      (node (ref J1) (pin 10)))
    (net (code 16) (name "Net-(J1-Pad11)")
      (node (ref J3) (pin 11))
      (node (ref J1) (pin 11)))
    (net (code 17) (name "Net-(J1-Pad12)")
      (node (ref J3) (pin 9))
      (node (ref J1) (pin 12)))
    (net (code 18) (name "Net-(J1-Pad13)")
      (node (ref J1) (pin 13))
      (node (ref J3) (pin 7)))
    (net (code 19) (name "Net-(J1-Pad14)")
      (node (ref J1) (pin 14))
      (node (ref J3) (pin 5)))
    (net (code 20) (name "Net-(J1-Pad15)")
      (node (ref J1) (pin 15))
      (node (ref J3) (pin 3)))
    (net (code 21) (name "Net-(J1-Pad16)")
      (node (ref J3) (pin 1))
      (node (ref J1) (pin 16)))
    (net (code 22) (name "Net-(J2-Pad10)")
      (node (ref J2) (pin 10))
      (node (ref J3) (pin 6)))
    (net (code 23) (name "Net-(J2-Pad6)")
      (node (ref J3) (pin 14))
      (node (ref J2) (pin 6)))
    (net (code 24) (name "Net-(J2-Pad5)")
      (node (ref J3) (pin 16))
      (node (ref J2) (pin 5)))
    (net (code 25) (name "Net-(J2-Pad4)")
      (node (ref J3) (pin 18))
      (node (ref J2) (pin 4)))
    (net (code 26) (name "Net-(J2-Pad3)")
      (node (ref J2) (pin 3))
      (node (ref J3) (pin 20)))
    (net (code 27) (name "Net-(J2-Pad2)")
      (node (ref J2) (pin 2))
      (node (ref J3) (pin 22)))
    (net (code 28) (name "Net-(J2-Pad12)")
      (node (ref J2) (pin 12))
      (node (ref J3) (pin 2)))
    (net (code 29) (name "Net-(J2-Pad11)")
      (node (ref J3) (pin 4))
      (node (ref J2) (pin 11)))
    (net (code 30) (name "Net-(J2-Pad1)")
      (node (ref J3) (pin 24))
      (node (ref J2) (pin 1)))))